<?xml version="1.0" encoding="utf-8"?>
<!-- Generator: Adobe Illustrator 16.0.0, SVG Export Plug-In . SVG Version: 6.00 Build 0)  -->
<!DOCTYPE svg PUBLIC "-//W3C//DTD SVG 1.1//EN" "http://www.w3.org/Graphics/SVG/1.1/DTD/svg11.dtd">
<svg version="1.1" id="Layer_1" xmlns="http://www.w3.org/2000/svg" xmlns:xlink="http://www.w3.org/1999/xlink" x="0px" y="0px"
	 width="36.8px" height="56.424px" viewBox="0 0 36.8 56.424" enable-background="new 0 0 36.8 56.424" xml:space="preserve">
<g>
	<path d="M0.306,0h36.188C36.697,0.025,36.8,0.128,36.8,0.306v3.442c0,0.205-0.103,0.306-0.306,0.306H22.875v0.306
		c1.938,1.046,3.443,3.188,4.514,6.426l0.153,1.109h8.951c0.204,0.026,0.306,0.128,0.306,0.306v3.443
		c0,0.205-0.103,0.306-0.306,0.306h-8.607c0,3.851-2.359,7.6-7.077,11.247c-4.183,2.397-7.153,3.596-8.913,3.596
		c0,0.102-0.102,0.153-0.306,0.153l19.433,25.171v0.306h-7.383c-0.077,0-7.587-9.742-22.531-29.226v-0.153h2.333
		c8.263,0,13.222-2.971,14.88-8.913c0.102-0.713,0.153-1.287,0.153-1.721v-0.459H0.306C0.102,15.952,0,15.85,0,15.646v-3.443
		c0.025-0.204,0.127-0.306,0.306-0.306h18.018c-0.612-2.32-1.913-4.208-3.902-5.661c-2.754-1.454-5.267-2.181-7.536-2.181h-6.58
		C0.102,4.055,0,3.953,0,3.749V0.306C0.025,0.102,0.127,0,0.306,0z"/>
</g>
</svg>
